{
	"autenticazione": [
       {
           "nome": "Aegis Authenticator",
		   "e2e": "",
		   "link": "https://getaegis.app/",
           "logo": "aegis.png",
           "desc": "Eccellente applicazione offline per gestire i propri codici 2FA. Molte le impostazioni disponibili tra cui backup automatico in locale.<br /><br /><a href=\"https://play.google.com/store/apps/details?id=com.beemdevelopment.aegis\">Play Store</a> | <a href=\"https://f-droid.org/en/packages/com.beemdevelopment.aegis\">F-Droid</a>",
		   "up": "ottima e sicura",
           "down": "solo per Android"
       },
       {
           "nome": "Ente Authenticator",
		   "e2e": "<img src=\"loghi/green_check.svg\" class=\"audit-title\"> Audit di sicurezza<br /><svg xmlns=\"http://www.w3.org/2000/svg\" width=\"16\" height=\"16\" fill=\"currentColor\" class=\"bi bi-cloud-check audit-title\" viewBox=\"0 0 16 16\"><path fill-rule=\"evenodd\" d=\"M10.354 6.146a.5.5 0 0 1 0 .708l-3 3a.5.5 0 0 1-.708 0l-1.5-1.5a.5.5 0 1 1 .708-.708L7 8.793l2.646-2.647a.5.5 0 0 1 .708 0z\"/><path d=\"M4.406 3.342A5.53 5.53 0 0 1 8 2c2.69 0 4.923 2 5.166 4.579C14.758 6.804 16 8.137 16 9.773 16 11.569 14.502 13 12.687 13H3.781C1.708 13 0 11.366 0 9.318c0-1.763 1.266-3.223 2.942-3.593.143-.863.698-1.723 1.464-2.383zm.653.757c-.757.653-1.153 1.44-1.153 2.056v.448l-.445.049C2.064 6.805 1 7.952 1 9.318 1 10.785 2.23 12 3.781 12h8.906C13.98 12 15 10.988 15 9.773c0-1.216-1.02-2.228-2.313-2.228h-.5v-.5C12.188 4.825 10.328 3 8 3a4.53 4.53 0 0 0-2.941 1.1z\"/></svg> Cloud<br /><br />",
		   "link": "https://ente.io/",
           "logo": "ente.png",
           "desc": "Ottima soluzione per tenere i propri 2FA in cloud. Gli sviluppatori di Ente Photos hanno creato Ente Authenticator sfruttando lo stesso backend.<br /><br /><a href=\"https://play.google.com/store/apps/details?id=io.ente.auth\">Play Store</a> | <a href=\"https://f-droid.org/packages/io.ente.auth/\">F-Droid</a> | <a href=\"https://apps.apple.com/app/ente-authenticator/id6444121398\">iOS</a> | <a href=\"https://auth.ente.io/\">web</a>",
		   "up": "sicuro e in cloud",
           "down": "nulla in particolare"
       },
       {
           "nome": "Proton Pass",
		   "e2e": "<svg xmlns=\"http://www.w3.org/2000/svg\" width=\"16\" height=\"16\" fill=\"currentColor\" class=\"bi bi-cloud-check audit-title\" viewBox=\"0 0 16 16\"><path fill-rule=\"evenodd\" d=\"M10.354 6.146a.5.5 0 0 1 0 .708l-3 3a.5.5 0 0 1-.708 0l-1.5-1.5a.5.5 0 1 1 .708-.708L7 8.793l2.646-2.647a.5.5 0 0 1 .708 0z\"/><path d=\"M4.406 3.342A5.53 5.53 0 0 1 8 2c2.69 0 4.923 2 5.166 4.579C14.758 6.804 16 8.137 16 9.773 16 11.569 14.502 13 12.687 13H3.781C1.708 13 0 11.366 0 9.318c0-1.763 1.266-3.223 2.942-3.593.143-.863.698-1.723 1.464-2.383zm.653.757c-.757.653-1.153 1.44-1.153 2.056v.448l-.445.049C2.064 6.805 1 7.952 1 9.318 1 10.785 2.23 12 3.781 12h8.906C13.98 12 15 10.988 15 9.773c0-1.216-1.02-2.228-2.313-2.228h-.5v-.5C12.188 4.825 10.328 3 8 3a4.53 4.53 0 0 0-2.941 1.1z\"/></svg> Cloud<br /><br />",
		   "link": "https://proton.me/pass/",
           "logo": "protonpass.png",
           "desc": "Su Proton Pass è possibile gestire i 2FA anche nella versione gratuita.<br /><br /><a href=\"https://play.google.com/store/apps/details?id=proton.android.pass\">Play Store</a> | <a href=\"https://apps.apple.com/app/proton-pass-password-manager/id6443490629\">iOS</a>",
		   "up": "economica e open source",
           "down": "se usata come 2fa evitare il password manager"
       },       
       {
           "nome": "Bitwarden",
		   "e2e": "<img src=\"loghi/green_check.svg\" class=\"audit-title\"> Audit di sicurezza<br /><svg xmlns=\"http://www.w3.org/2000/svg\" width=\"16\" height=\"16\" fill=\"currentColor\" class=\"bi bi-cloud-check audit-title\" viewBox=\"0 0 16 16\"><path fill-rule=\"evenodd\" d=\"M10.354 6.146a.5.5 0 0 1 0 .708l-3 3a.5.5 0 0 1-.708 0l-1.5-1.5a.5.5 0 1 1 .708-.708L7 8.793l2.646-2.647a.5.5 0 0 1 .708 0z\"/><path d=\"M4.406 3.342A5.53 5.53 0 0 1 8 2c2.69 0 4.923 2 5.166 4.579C14.758 6.804 16 8.137 16 9.773 16 11.569 14.502 13 12.687 13H3.781C1.708 13 0 11.366 0 9.318c0-1.763 1.266-3.223 2.942-3.593.143-.863.698-1.723 1.464-2.383zm.653.757c-.757.653-1.153 1.44-1.153 2.056v.448l-.445.049C2.064 6.805 1 7.952 1 9.318 1 10.785 2.23 12 3.781 12h8.906C13.98 12 15 10.988 15 9.773c0-1.216-1.02-2.228-2.313-2.228h-.5v-.5C12.188 4.825 10.328 3 8 3a4.53 4.53 0 0 0-2.941 1.1z\"/></svg> Cloud<br /><br />",
		   "link": "https://bitwarden.com/",
           "logo": "bitwarden.png",
           "desc": "Nella versione a pagamento Bitwarden offre anche la gestione dei codici 2FA. Tuttavia ne sconsigliamo l'utilizzo se già lo utilizzate come password manager.<br /><br /><a href=\"https://play.google.com/store/apps/details?id=com.x8bit.bitwarden\">Play Store</a> | <a href=\"https://mobileapp.bitwarden.com/fdroid/\">F-Droid</a> | <a href=\"https://apps.apple.com/app/bitwarden/id1137397744\">iOS</a>",
		   "up": "economica, open source e libera",
           "down": "se usata come 2fa evitare il password manager"
       },       
       {
           "nome": "Keepass",
		   "e2e": "<img src=\"loghi/green_check.svg\" class=\"audit-title\"> Audit di sicurezza<br /><br />",		   
		   "link": "https://keepass.info/",
           "logo": "keepass.svg",
           "desc": "Keepass permette di gestire anche i codici 2FA oltre alle proprie password. Potete sfruttarlo anche con l'applicazione web <a href=\"https://keeweb.devol.it/\">Keeweb</a> oppure con <a href=\"https://github.com/keepassxreboot/keepassxc/\">KeepassXC</a> <img src=\"loghi/green_check.svg\" class=\"audit\" title=\"Audit di sicurezza\"> e <a href=\"https://github.com/PhilippC/keepass2android\">Keepass2Android</a>.",
		   "up": "gratuito, open source e libero",
           "down": "se usata come 2fa evitare il password manager"
       },
       {
           "nome": "Standard Notes",
		   "e2e": "<img src=\"loghi/green_check.svg\" class=\"audit-title\"> Audit di sicurezza<br /><svg xmlns=\"http://www.w3.org/2000/svg\" width=\"16\" height=\"16\" fill=\"currentColor\" class=\"bi bi-cloud-check audit-title\" viewBox=\"0 0 16 16\"><path fill-rule=\"evenodd\" d=\"M10.354 6.146a.5.5 0 0 1 0 .708l-3 3a.5.5 0 0 1-.708 0l-1.5-1.5a.5.5 0 1 1 .708-.708L7 8.793l2.646-2.647a.5.5 0 0 1 .708 0z\"/><path d=\"M4.406 3.342A5.53 5.53 0 0 1 8 2c2.69 0 4.923 2 5.166 4.579C14.758 6.804 16 8.137 16 9.773 16 11.569 14.502 13 12.687 13H3.781C1.708 13 0 11.366 0 9.318c0-1.763 1.266-3.223 2.942-3.593.143-.863.698-1.723 1.464-2.383zm.653.757c-.757.653-1.153 1.44-1.153 2.056v.448l-.445.049C2.064 6.805 1 7.952 1 9.318 1 10.785 2.23 12 3.781 12h8.906C13.98 12 15 10.988 15 9.773c0-1.216-1.02-2.228-2.313-2.228h-.5v-.5C12.188 4.825 10.328 3 8 3a4.53 4.53 0 0 0-2.941 1.1z\"/></svg> Cloud<br /><br />",		   
		   "link": "https://standardnotes.com/",
           "logo": "standardnotes.ico",
           "desc": "Non tutti ne sono a conoscenza ma questa applicazione per gestire le note permette, nella sua versione a pagamento, anche di gestire i codici 2FA.<br /><br /><a href=\"https://play.google.com/store/apps/details?id=com.standardnotes\">Play Store</a> | <a href=\"https://f-droid.org/en/packages/com.standardnotes\">F-Droid</a> | <a href=\"https://apps.apple.com/app/standard-notes/id1285392450\">iOS</a> | <a href=\"https://app.standardnotes.com/\">web</a>",
		   "up": "gestisce anche eventuali appunti",
           "down": "un po' costoso"
       }	   
   ]   
}