{
	"cloud": [
       {
           "nome": "Proton Drive",
		   "e2e": "<img src=\"loghi/green_check.svg\" class=\"audit-title\"> Audit di sicurezza<br /><svg xmlns=\"http://www.w3.org/2000/svg\" width=\"16\" height=\"16\" fill=\"currentColor\" class=\"bi bi-file-earmark-lock audit-title\" viewBox=\"0 0 16 16\"><path d=\"M10 7v1.076c.54.166 1 .597 1 1.224v2.4c0 .816-.781 1.3-1.5 1.3h-3c-.719 0-1.5-.484-1.5-1.3V9.3c0-.627.46-1.058 1-1.224V7a2 2 0 1 1 4 0zM7 7v1h2V7a1 1 0 0 0-2 0zM6 9.3v2.4c0 .042.02.107.105.175A.637.637 0 0 0 6.5 12h3a.64.64 0 0 0 .395-.125c.085-.068.105-.133.105-.175V9.3c0-.042-.02-.107-.105-.175A.637.637 0 0 0 9.5 9h-3a.637.637 0 0 0-.395.125C6.02 9.193 6 9.258 6 9.3z\"/><path d=\"M14 14V4.5L9.5 0H4a2 2 0 0 0-2 2v12a2 2 0 0 0 2 2h8a2 2 0 0 0 2-2zM9.5 3A1.5 1.5 0 0 0 11 4.5h2V14a1 1 0 0 1-1 1H4a1 1 0 0 1-1-1V2a1 1 0 0 1 1-1h5.5v2z\"/></svg> Crittografia zero-knowledge<br /><br />",
		   "link": "https://proton.me/it/drive",
           "logo": "protondrive.ico",
           "desc": "Probabilmente la scelta migliore che potete fare. Crittografia zero-knowledge, audit indipendenti superati e prezzo non eccessivo per la tipologia di servizio offerto.",
		   "up": "open source e sicuro",
           "down": "rilasciata da poco, ancora poche opzioni"
       },
       {
           "nome": "Filen",
		   "e2e": "<svg xmlns=\"http://www.w3.org/2000/svg\" width=\"16\" height=\"16\" fill=\"currentColor\" class=\"bi bi-file-earmark-lock audit-title\" viewBox=\"0 0 16 16\"><path d=\"M10 7v1.076c.54.166 1 .597 1 1.224v2.4c0 .816-.781 1.3-1.5 1.3h-3c-.719 0-1.5-.484-1.5-1.3V9.3c0-.627.46-1.058 1-1.224V7a2 2 0 1 1 4 0zM7 7v1h2V7a1 1 0 0 0-2 0zM6 9.3v2.4c0 .042.02.107.105.175A.637.637 0 0 0 6.5 12h3a.64.64 0 0 0 .395-.125c.085-.068.105-.133.105-.175V9.3c0-.042-.02-.107-.105-.175A.637.637 0 0 0 9.5 9h-3a.637.637 0 0 0-.395.125C6.02 9.193 6 9.258 6 9.3z\"/><path d=\"M14 14V4.5L9.5 0H4a2 2 0 0 0-2 2v12a2 2 0 0 0 2 2h8a2 2 0 0 0 2-2zM9.5 3A1.5 1.5 0 0 0 11 4.5h2V14a1 1 0 0 1-1 1H4a1 1 0 0 1-1-1V2a1 1 0 0 1 1-1h5.5v2z\"/></svg> Crittografia zero-knowledge<br /><br />",		   
		   "link": "https://filen.io/",
           "logo": "filen.png",
           "desc": "Un provider europeo (tedesco) davvero molto interessante: crittografia zero-knowledge, applicazioni open source e costo davvero bassissimo.",
		   "up": "server europei e velocità",
           "down": "mai ricevuto audit di sicurezza"
       },
       {
           "nome": "Internxt",
		   "e2e": "<img src=\"loghi/green_check.svg\" class=\"audit-title\"> Audit di sicurezza<br /><svg xmlns=\"http://www.w3.org/2000/svg\" width=\"16\" height=\"16\" fill=\"currentColor\" class=\"bi bi-file-earmark-lock audit-title\" viewBox=\"0 0 16 16\"><path d=\"M10 7v1.076c.54.166 1 .597 1 1.224v2.4c0 .816-.781 1.3-1.5 1.3h-3c-.719 0-1.5-.484-1.5-1.3V9.3c0-.627.46-1.058 1-1.224V7a2 2 0 1 1 4 0zM7 7v1h2V7a1 1 0 0 0-2 0zM6 9.3v2.4c0 .042.02.107.105.175A.637.637 0 0 0 6.5 12h3a.64.64 0 0 0 .395-.125c.085-.068.105-.133.105-.175V9.3c0-.042-.02-.107-.105-.175A.637.637 0 0 0 9.5 9h-3a.637.637 0 0 0-.395.125C6.02 9.193 6 9.258 6 9.3z\"/><path d=\"M14 14V4.5L9.5 0H4a2 2 0 0 0-2 2v12a2 2 0 0 0 2 2h8a2 2 0 0 0 2-2zM9.5 3A1.5 1.5 0 0 0 11 4.5h2V14a1 1 0 0 1-1 1H4a1 1 0 0 1-1-1V2a1 1 0 0 1 1-1h5.5v2z\"/></svg> Crittografia zero-knowledge<br /><br />",	   
		   "link": "https://internxt.com/drive/",
           "logo": "internxt.ico",
           "desc": "Alternativa molto interessante: nessun data center, i file vengono dislocati per il mondo. Ha superato audit indipendenti, utilizza la crittografia zero-knowledge ed è abbastanza economica",
		   "up": "economico e decentralizzato",
           "down": "lento e buggato"
       },       
       {
           "nome": "Peergos",
		   "e2e": "<img src=\"loghi/green_check.svg\" class=\"audit-title\"> Audit di sicurezza<br /><svg xmlns=\"http://www.w3.org/2000/svg\" width=\"16\" height=\"16\" fill=\"currentColor\" class=\"bi bi-file-earmark-lock audit-title\" viewBox=\"0 0 16 16\"><path d=\"M10 7v1.076c.54.166 1 .597 1 1.224v2.4c0 .816-.781 1.3-1.5 1.3h-3c-.719 0-1.5-.484-1.5-1.3V9.3c0-.627.46-1.058 1-1.224V7a2 2 0 1 1 4 0zM7 7v1h2V7a1 1 0 0 0-2 0zM6 9.3v2.4c0 .042.02.107.105.175A.637.637 0 0 0 6.5 12h3a.64.64 0 0 0 .395-.125c.085-.068.105-.133.105-.175V9.3c0-.042-.02-.107-.105-.175A.637.637 0 0 0 9.5 9h-3a.637.637 0 0 0-.395.125C6.02 9.193 6 9.258 6 9.3z\"/><path d=\"M14 14V4.5L9.5 0H4a2 2 0 0 0-2 2v12a2 2 0 0 0 2 2h8a2 2 0 0 0 2-2zM9.5 3A1.5 1.5 0 0 0 11 4.5h2V14a1 1 0 0 1-1 1H4a1 1 0 0 1-1-1V2a1 1 0 0 1 1-1h5.5v2z\"/></svg> Crittografia zero-knowledge<br /><br />",		   
		   "link": "https://peergos.net/",
           "logo": "peergos.png",
           "desc": "Decentralizzato (IPFS), open source e con crittografia zero-knowledge. Purtroppo non esiste alcuna app su smartphone e sia la grafica che l'utilizzo sono un po' spartani.",
		   "up": "sicuro e ben seguito",
           "down": "nessuna applicazione e brutto esteticamente"
       },           
       {
           "nome": "Cryptee",
		   "e2e": "<svg xmlns=\"http://www.w3.org/2000/svg\" width=\"16\" height=\"16\" fill=\"currentColor\" class=\"bi bi-file-earmark-lock audit-title\" viewBox=\"0 0 16 16\"><path d=\"M10 7v1.076c.54.166 1 .597 1 1.224v2.4c0 .816-.781 1.3-1.5 1.3h-3c-.719 0-1.5-.484-1.5-1.3V9.3c0-.627.46-1.058 1-1.224V7a2 2 0 1 1 4 0zM7 7v1h2V7a1 1 0 0 0-2 0zM6 9.3v2.4c0 .042.02.107.105.175A.637.637 0 0 0 6.5 12h3a.64.64 0 0 0 .395-.125c.085-.068.105-.133.105-.175V9.3c0-.042-.02-.107-.105-.175A.637.637 0 0 0 9.5 9h-3a.637.637 0 0 0-.395.125C6.02 9.193 6 9.258 6 9.3z\"/><path d=\"M14 14V4.5L9.5 0H4a2 2 0 0 0-2 2v12a2 2 0 0 0 2 2h8a2 2 0 0 0 2-2zM9.5 3A1.5 1.5 0 0 0 11 4.5h2V14a1 1 0 0 1-1 1H4a1 1 0 0 1-1-1V2a1 1 0 0 1 1-1h5.5v2z\"/></svg> Crittografia zero-knowledge<br /><br />",		   
		   "link": "https://crypt.ee/",
           "logo": "cryptee.ico",
           "desc": "Un cloud open source molto sicuro e con sede in Estonia. Eccezionale il sistema per modificare i documenti. Esteticamente molto gradevole.",
		   "up": "open source e sicuro",
           "down": "nessuna condivisione file o cartelle"
       },	   
       {
           "nome": "Mega",
		   "e2e": "<svg xmlns=\"http://www.w3.org/2000/svg\" width=\"16\" height=\"16\" fill=\"currentColor\" class=\"bi bi-file-earmark-lock audit-title\" viewBox=\"0 0 16 16\"><path d=\"M10 7v1.076c.54.166 1 .597 1 1.224v2.4c0 .816-.781 1.3-1.5 1.3h-3c-.719 0-1.5-.484-1.5-1.3V9.3c0-.627.46-1.058 1-1.224V7a2 2 0 1 1 4 0zM7 7v1h2V7a1 1 0 0 0-2 0zM6 9.3v2.4c0 .042.02.107.105.175A.637.637 0 0 0 6.5 12h3a.64.64 0 0 0 .395-.125c.085-.068.105-.133.105-.175V9.3c0-.042-.02-.107-.105-.175A.637.637 0 0 0 9.5 9h-3a.637.637 0 0 0-.395.125C6.02 9.193 6 9.258 6 9.3z\"/><path d=\"M14 14V4.5L9.5 0H4a2 2 0 0 0-2 2v12a2 2 0 0 0 2 2h8a2 2 0 0 0 2-2zM9.5 3A1.5 1.5 0 0 0 11 4.5h2V14a1 1 0 0 1-1 1H4a1 1 0 0 1-1-1V2a1 1 0 0 1 1-1h5.5v2z\"/></svg> Crittografia zero-knowledge<br /><br />",		   
		   "link": "https://mega.nz/",
           "logo": "mega.png",
           "desc": "Progetto di vecchia data, indubbiamente interessante. Le applicazioni sono open source ed è crittografato end-to-end. Il tutto a prezzi accessibili.",
		   "up": "buoni prezzi e velocità",
           "down": "crittografia debole"
       },
       {
           "nome": "Nextcloud",
		   "e2e": "",		   
		   "link": "https://nextcloud.com/",
           "logo": "nextcloud.png",
           "desc": "Nextcloud è una completa suite che chiunque può installare su un proprio server. Esistono molti provider che offrono spazio con installato Nextcloud, ecco quelli consigliati da noi: <a href=\"https://cloud.webo.hosting/\">Webo</a> | <a href=\"https://thegood.cloud/\">The Good Cloud</a> | <a href=\"https://www.hetzner.com/storage/storage-share\">Hetzner</a>.",
		   "up": "ottima suite completa",
           "down": "crittografia zero-knowledge attivabile e con limitazioni"
       },
       {
           "nome": "kDrive",
		   "e2e": "",		   
		   "link": "https://www.infomaniak.com/it/kdrive",
           "logo": "infomaniak.ico",
           "desc": "Il loro costo/GB è tra i più economici in assoluto dunque perfetta soprattutto se vi serve tanto spazio. La loro suite permette inoltre di modificare file online e i primi 15GB sono gratuiti.",
		   "up": "ottima suite completa",
           "down": "nessuna crittografia zero-knowledge"
       }	   
   ]   
}