{
	"ricerca": [
       {
           "nome": "DuckDuckGo",
		   "link": "https://duckduckgo.com/",
           "logo": "duckduckgo.png",
           "desc": "L’alternativa più conosciuta, una delle più storiche e una delle più apprezzate in termini di utilizzo quotidiano anche nella lingua italiana.",
		   "up": "buoni risultati anche in italiano",
           "down": "troppo dipendente da Microsoft Bing"
       },
       {
           "nome": "Brave Search",
		   "link": "https://search.brave.com/",
           "logo": "brave.svg",
           "desc": "Il browser Brave ha deciso di mettere il turbo e di aprire anche un motore di ricerca iniziando anche la creazione di un proprio indice.",
		   "up": "ottimi risultati soprattutto in inglese",
           "down": "pochi risultati in italiano"
       },
       {
           "nome": "Startpage",
		   "link": "https://www.startpage.com/",
           "logo": "startpage.png",
           "desc": "Usa principalmente i risultati di Google ma utilizzandolo evitate la profilazione di Google stessa. Ogni link può essere visitato anche <i>privatamente</i>.",
		   "up": "ottimi risultati",
           "down": "non ci sono le mappe"
       },	
       {
           "nome": "Presearch",
		   "link": "https://presearch.com/",
           "logo": "presearch.svg",
           "desc": "È una delle alternative più interessanti del recente periodo. Si basa su una loro criptovaluta (PRE), sfrutta la decentralizzazione con tanti server gestiti da utenti e ha ottimi risultati.",
		   "up": "home page personalizzabile",
           "down": "non ha ancora un suo indice"
       },
       {
           "nome": "Search for Planet",
		   "link": "https://www.searchforplanet.org/",
           "logo": "searchforplanetw.png",
           "desc": "Non sapete quale motore di ricerca etico utilizzare? Search For Planet ne userà uno diverso automaticamente ogni volta che fate una ricerca!",
		   "up": "usa provider etici",
           "down": "quasi tutti usano Bing"
       },
       {
           "nome": "Ecosia",
		   "link": "https://ecosia.org/",
           "logo": "ecosia.ico",
           "desc": "Un ottimo compromesso per chi ama l'ambiente: l'80% dei ricavati di Ecosia sono destinati al riforestamento ambientale.",
		   "up": "piantano alberi",
           "down": "dipendono da Bing e privacy policy non ottima"
       },
       {
           "nome": "Swisscows",
		   "link": "https://swisscows.ch/",
           "logo": "swisscows.png",
           "desc": "Motore di ricerca svizzero, privacy e family-friendly, è infatti impossibile trovare contenuti violenti o espliciti.",
		   "up": "buoni risultati anche in italiano",
           "down": "solo per famiglie e bambini"
       },
       {
           "nome": "Kagi",
		   "link": "http://kagi.com/",
           "logo": "kagi.png",
           "desc": "Motore di ricerca a pagamento, ha una decente privacy policy e i risultati sono davvero molto buoni. Il costo però è davvero eccessivo.",
		   "up": "buoni risultati anche in italiano",
           "down": "solo a pagamento"
       }	   
   ]   
}