{
	"traduttori": [
       {
           "nome": "Traduttori alternativi",
		   "link": "javascript:void(0);",
           "logo": "libretranslate.svg",
           "desc": "I progetti elencati qui sotto hanno una pagina web che traduce del testo senza usare, almeno esclusivamente, Google Translate.<br /><br /><a href=\"https://libretranslate.com/\">LibreTranslate</a> | <a href=\"https://tatoeba.org/it/\">Tatoeba</a>",
		   "up": "vere alternative a Google",
           "down": "traduzioni non sempre ottime"
       },
       {
           "nome": "Frontend di Google Translate",
		   "link": "javascript:void(0);",
           "logo": "googletranslate.ico",
           "desc": "Questi siti sfruttano le API di Google Translate senza farvi tracciare né profilare da Google.<br /><br /><a href=\"https://lingva.ml/\">Lingva</a>",
		   "up": "ottime traduzioni",
           "down": "viene usato google"
       },
       {
           "nome": "Estensioni",
		   "link": "javascript:void(0);",
           "logo": "estensione.png",
           "desc": "Queste sono estensioni per browser, nel caso di <b>Brave</b> il traduttore è preinstallato nel browser.<br /><br /><a href=\"https://addons.mozilla.org/it/firefox/addon/firefox-translations/\">Firefox Translations</a> | <a href=\"https://support.brave.com/hc/en-us/articles/8963107404813-How-do-I-use-Brave-Translate-\">Brave</a>",
		   "up": "traducono pagine intere",		   
           "down": "solo da browser"
       },
       {
           "nome": "Applicazioni",
		   "link": "javascript:void(0);",
           "logo": "phone.svg",
           "desc": "Applicazioni per il vostro cellulare, tutte quelle elencate sono per Android e abbiamo privilegiato quelle su F-Droid.<br /><br /><a href=\"https://f-droid.org/en/packages/de.reimardoeffinger.quickdic\">QuickDic</a> | <a href=\"https://f-droid.org/en/packages/dev.atajan.lingva_android/\">Lentil Translate</a> | <a href=\"https://f-droid.org/packages/com.simplytranslate_mobile/\">SimplyTranslate</a>",
		   "up": "nessuno in particolare",		   
           "down": "nessuno in particolare"
       }	   
   ]   
}